Retail Strategy and Analytics
…
Let us view the transcations over time to see if there are any missing values.

TransactionData %>% count(DATE)

## # A tibble: 364 x 2
##    DATE           n
##    <date>     <int>
##  1 2018-07-01   724
##  2 2018-07-02   711
##  3 2018-07-03   722
##  4 2018-07-04   714
##  5 2018-07-05   712
##  6 2018-07-06   762
##  7 2018-07-07   750
##  8 2018-07-08   696
##  9 2018-07-09   749
## 10 2018-07-10   705
## # ... with 354 more rows
…
TransactionData %>% count(PACK_SIZE) %>% arrange(desc(n))

## # A tibble: 21 x 2
##    PACK_SIZE     n
##        <dbl> <int>
##  1       175 66390
##  2       150 43131
##  3       134 25102
##  4       110 22387
##  5       170 19983
##  6       165 15297
##  7       300 15166
##  8       330 12540
##  9       380  6416
## 10       270  6285
## # ... with 11 more rows
…
BRAND NAME

TransactionData$BRAND_NAME<-gsub("([A-Za-z]+).*", "\\1", TransactionData$PROD_NAME)
unique(TransactionData$BRAND_NAME)

##  [1] "Natural"    "CCs"        "Smiths"     "Kettle"     "Old"       
##  [6] "Grain"      "Doritos"    "Twisties"   "WW"         "Thins"     
## [11] "Burger"     "NCC"        "Cheezels"   "Infzns"     "Red"       
## [16] "Pringles"   "Dorito"     "Infuzions"  "Smith"      "GrnWves"   
## [21] "Tyrrells"   "Cobs"       "Woolworths" "French"     "RRD"       
## [26] "Tostitos"   "Cheetos"    "Snbts"      "Sunbites"

TransactionData %>% filter(BRAND_NAME == "Red")

## # A tibble: 5,885 x 10
##    DATE       STORE_NBR LYLTY_CARD_NBR TXN_ID PROD_NBR PROD_NAME        PROD_QTY
##    <date>         <dbl>          <dbl>  <dbl>    <dbl> <chr>               <dbl>
##  1 2018-08-15        41          41486  38472       13 Red Rock Deli T~        1
##  2 2019-05-20        45          45127  41122       64 Red Rock Deli S~        2
##  3 2018-08-16        51          51100  46802       48 Red Rock Deli S~        1
##  4 2018-08-19       257         257168 256776       64 Red Rock Deli S~        2
##  5 2019-03-13         1           1348    391       48 Red Rock Deli S~        1
##  6 2019-06-08         2           2203    806       64 Red Rock Deli S~        1
##  7 2018-07-07         5           5026   4524       13 Red Rock Deli T~        2
##  8 2019-03-30         5           5050   4671       64 Red Rock Deli S~        2
##  9 2018-12-14         5           5136   5176       48 Red Rock Deli S~        2
## 10 2018-10-17         9           9450   8955       64 Red Rock Deli S~        1
## # ... with 5,875 more rows, and 3 more variables: TOT_SALES <dbl>,
## #   PACK_SIZE <dbl>, BRAND_NAME <chr>

TransactionData %>% filter(BRAND_NAME == "RRD")

## # A tibble: 11,894 x 10
##    DATE       STORE_NBR LYLTY_CARD_NBR TXN_ID PROD_NBR PROD_NAME        PROD_QTY
##    <date>         <dbl>          <dbl>  <dbl>    <dbl> <chr>               <dbl>
##  1 2019-05-18       120         120226 123743       67 RRD Chilli&    ~        1
##  2 2019-05-19       164         164183 164919       67 RRD Chilli&    ~        1
##  3 2018-08-16       191         191200 192940       53 RRD Sweet Chill~        1
##  4 2019-01-17         5           5018   4467       53 RRD Sweet Chill~        2
##  5 2018-08-11         5           5028   4535       67 RRD Chilli&    ~        2
##  6 2019-03-09         5           5050   4670       67 RRD Chilli&    ~        2
##  7 2018-07-11         5           5115   5031      103 RRD Steak &    ~        2
##  8 2019-02-07         5           5115   5035       85 RRD Honey Soy  ~        2
##  9 2019-06-16         6           6005   5770       97 RRD Salt & Vine~        1
## 10 2018-12-09         6           6382   6169       85 RRD Honey Soy  ~        1
## # ... with 11,884 more rows, and 3 more variables: TOT_SALES <dbl>,
## #   PACK_SIZE <dbl>, BRAND_NAME <chr>
…
Older singles/couples spend more on chips. Let us see how premium customers are split by lifestage

Customer_Seg <- Retail_Data_Chips %>% group_by(PREMIUM_CUSTOMER, LIFESTAGE) %>% summarise(Total_Sales = sum(TOT_SALES)) %>% arrange(desc(Total_Sales))

## `summarise()` has grouped output by 'PREMIUM_CUSTOMER'. You can override using the `.groups` argument.

print(Customer_Seg)

## # A tibble: 21 x 3
## # Groups:   PREMIUM_CUSTOMER [3]
##    PREMIUM_CUSTOMER LIFESTAGE             Total_Sales
##    <chr>            <chr>                       <dbl>
##  1 Budget           OLDER FAMILIES            156864.
##  2 Mainstream       YOUNG SINGLES/COUPLES     147582.
##  3 Mainstream       RETIREES                  145169.
##  4 Budget           YOUNG FAMILIES            129718.
##  5 Budget           OLDER SINGLES/COUPLES     127834.
##  6 Mainstream       OLDER SINGLES/COUPLES     124648.
##  7 Premium          OLDER SINGLES/COUPLES     123538.
##  8 Budget           RETIREES                  105916.
##  9 Mainstream       OLDER FAMILIES             96414.
## 10 Premium          RETIREES                   91297.
## # ... with 11 more rows
…
3. Let us see what stores have the maximum sales.

Retail_Data_Chips %>% group_by(STORE_NBR) %>% summarise(Total_Sales = sum(TOT_SALES)) %>% arrange(desc(Total_Sales))

## # A tibble: 271 x 2
##    STORE_NBR Total_Sales
##        <dbl>       <dbl>
##  1       226      17845.
##  2        88      15446.
##  3       165      15188.
##  4       237      14831.
##  5        40      14427.
##  6        58      14257.
##  7       199      13976.
##  8         4      13709.
##  9       203      13623.
## 10        26      13597.
## # ... with 261 more rows

This information helps us see that some stores outperform, where as others have really low sales. #### 4. Average chip price by customer segement

Avg_Price_Seg <- Retail_Data_Chips %>% group_by(PREMIUM_CUSTOMER, LIFESTAGE) %>% summarise(Avg_Sales = mean(TOT_SALES)) %>% arrange(desc(Avg_Sales))

## `summarise()` has grouped output by 'PREMIUM_CUSTOMER'. You can override using the `.groups` argument.

print(Avg_Price_Seg)

## # A tibble: 21 x 3
## # Groups:   PREMIUM_CUSTOMER [3]
##    PREMIUM_CUSTOMER LIFESTAGE              Avg_Sales
##    <chr>            <chr>                      <dbl>
##  1 Mainstream       MIDAGE SINGLES/COUPLES      7.64
##  2 Mainstream       YOUNG SINGLES/COUPLES       7.55
##  3 Premium          RETIREES                    7.46
##  4 Premium          OLDER SINGLES/COUPLES       7.46
##  5 Budget           RETIREES                    7.45
##  6 Budget           OLDER SINGLES/COUPLES       7.44
##  7 Premium          OLDER FAMILIES              7.36
##  8 Mainstream       NEW FAMILIES                7.31
##  9 Mainstream       OLDER SINGLES/COUPLES       7.31
## 10 Budget           YOUNG FAMILIES              7.30
## # ... with 11 more rows
…
It is clear mainstream sales are higher as there are more consumers in this segment. However, Budget older families have the highest customers.

Higher sales may also be driven by more units of chips being bought per customer. Let's have a look at this next.

Avg_Qty_Seg <- Retail_Data_Chips %>% group_by(PREMIUM_CUSTOMER, LIFESTAGE) %>% summarise(Avg_Quantity = mean(PROD_QTY)) %>% arrange(desc(Avg_Quantity))

## `summarise()` has grouped output by 'PREMIUM_CUSTOMER'. You can override using the `.groups` argument.

print(Avg_Qty_Seg)

## # A tibble: 21 x 3
## # Groups:   PREMIUM_CUSTOMER [3]
##    PREMIUM_CUSTOMER LIFESTAGE              Avg_Quantity
##    <chr>            <chr>                         <dbl>
##  1 Premium          OLDER FAMILIES                 1.98
##  2 Mainstream       OLDER FAMILIES                 1.95
##  3 Budget           OLDER FAMILIES                 1.95
##  4 Mainstream       YOUNG FAMILIES                 1.94
##  5 Budget           YOUNG FAMILIES                 1.94
##  6 Premium          YOUNG FAMILIES                 1.94
##  7 Budget           OLDER SINGLES/COUPLES          1.91
##  8 Premium          OLDER SINGLES/COUPLES          1.91
##  9 Mainstream       MIDAGE SINGLES/COUPLES         1.91
## 10 Mainstream       OLDER SINGLES/COUPLES          1.91
## # ... with 11 more rows

The average quantity sold is higer among: ### 1. Premium - OLDER FAMILIE - 1.983566

### 2. Mainstream - OLDER FAMILIES - 1.948795 ### 3. Budget- OLDER FAMILIES - 1.945384

Let us look at the average price per chips by customer segments

Avg_chips_Seg <- Retail_Data_Chips %>% group_by(PREMIUM_CUSTOMER, LIFESTAGE) %>% summarise(Avg_Price = mean(TOT_SALES/PROD_QTY)) %>% arrange(desc(Avg_Price))

## `summarise()` has grouped output by 'PREMIUM_CUSTOMER'. You can override using the `.groups` argument.

print(Avg_chips_Seg)

## # A tibble: 21 x 3
## # Groups:   PREMIUM_CUSTOMER [3]
##    PREMIUM_CUSTOMER LIFESTAGE              Avg_Price
##    <chr>            <chr>                      <dbl>
##  1 Mainstream       YOUNG SINGLES/COUPLES       4.07
##  2 Mainstream       MIDAGE SINGLES/COUPLES      3.99
##  3 Budget           RETIREES                    3.92
##  4 Premium          RETIREES                    3.92
##  5 Budget           NEW FAMILIES                3.92
##  6 Mainstream       NEW FAMILIES                3.92
##  7 Premium          OLDER SINGLES/COUPLES       3.89
##  8 Budget           OLDER SINGLES/COUPLES       3.88
##  9 Premium          NEW FAMILIES                3.87
## 10 Mainstream       RETIREES                    3.84
## # ... with 11 more rows
…
6. Let us see what brand sells the highest

Retail_Data_Chips %>% filter(PREMIUM_CUSTOMER == "Mainstream", LIFESTAGE == "YOUNG SINGLES/COUPLES") %>% group_by(BRAND) %>% summarise(Total_Sales = sum(TOT_SALES)) %>% arrange(desc(Total_Sales))

## # A tibble: 27 x 2
##    BRAND     Total_Sales
##    <chr>           <dbl>
##  1 Kettle         35424.
##  2 Doritos        17266.
##  3 Pringles       16006.
##  4 Smiths         14338.
##  5 Twisties        7540.
##  6 Tostitos        7238 
##  7 Thins           7217.
##  8 Infuzions       6694.
##  9 Cobs            6145.
## 10 Tyrrells        4801.
## # ... with 17 more rows
…
175g seems to be the most commonly sold pack size.

8. Let us check the average price per unit spent by every customer for brand and pack, how these two rank against each other and the customer.

Retail_Data_Chips %>% filter(PREMIUM_CUSTOMER == "Mainstream", LIFESTAGE == "YOUNG SINGLES/COUPLES")%>% group_by(BRAND) %>% summarise(Avg_Price_Brand = mean(TOT_SALES/PROD_QTY)) %>% arrange(desc(Avg_Price_Brand))

## # A tibble: 27 x 2
##    BRAND    Avg_Price_Brand
##    <chr>              <dbl>
##  1 Dorito              6.39
##  2 Cheezels            5.09
##  3 Kettle              4.94
##  4 Twisties            4.51
##  5 Doritos             4.45
##  6 Tostitos            4.4 
##  7 Smiths              4.38
##  8 Tyrrells            4.2 
##  9 Cobs                3.8 
## 10 Infzns              3.8 
## # ... with 17 more rows
…
Retail_Data_Chips %>% filter(PREMIUM_CUSTOMER == "Mainstream", LIFESTAGE == "YOUNG SINGLES/COUPLES") %>% group_by(BRAND, PACK_SIZE) %>% summarise(Avg_Price = mean(TOT_SALES/PROD_QTY)) %>% arrange(desc(Avg_Price))

## `summarise()` has grouped output by 'BRAND'. You can override using the `.groups` argument.

## # A tibble: 42 x 3
## # Groups:   BRAND [27]
##    BRAND    PACK_SIZE Avg_Price
##    <chr>        <dbl>     <dbl>
##  1 Dorito         380      6.39
##  2 Smiths         380      5.9 
##  3 Cheezels       330      5.7 
##  4 Doritos        330      5.7 
##  5 Smiths         330      5.7 
##  6 Kettle         175      5.4 
##  7 Kettle         150      4.6 
##  8 Twisties       270      4.6 
##  9 Doritos        170      4.4 
## 10 Tostitos       175      4.4 
## # ... with 32 more rows

8. Let us check the quantity bought by every customer for brand and pack, how these two rank against each other and the customer.

Retail_Data_Chips %>% filter(PREMIUM_CUSTOMER == "Mainstream", LIFESTAGE == "YOUNG SINGLES/COUPLES") %>% group_by(BRAND) %>% summarise(Qty_brand= sum(PROD_QTY)) %>% arrange(desc(Qty_brand))

## # A tibble: 27 x 2
##    BRAND     Qty_brand
##    <chr>         <dbl>
##  1 Kettle         7172
##  2 Pringles       4326
##  3 Doritos        3878
##  4 Smiths         3252
##  5 Thins          2187
##  6 Infuzions      1802
##  7 Twisties       1673
##  8 Tostitos       1645
##  9 Cobs           1617
## 10 RRD            1587
## # ... with 17 more rows
…
